…
net_approval_margins

## # A tibble: 40 × 7
##     week mean_rate sd_rate number se_rate lower upper
##    <dbl>     <dbl>   <dbl>  <int>   <dbl> <dbl> <dbl>
##  1     3      19.8    8.62     12    2.49 14.3   25.2
##  2     4      18.0    8.78     24    1.79 14.3   21.7
##  3     5      16.3    8.10     23    1.69 12.8   19.8
##  4     6      16.8    7.70     19    1.77 13.1   20.5
##  5     7      16.0    7.6      25    1.52 12.8   19.1
##  6     8      13.7    7.51     26    1.47 10.6   16.7
##  7     9      13.1    7.43     22    1.58  9.80  16.4
##  8    10      14.8    7.45     23    1.55 11.6   18.0
##  9    11      15.9    8.83     22    1.88 12.0   19.8
## 10    12      14.2    8.71     27    1.68 10.7   17.6
## # … with 30 more rows
…
